…
    ##  6 Arge…               NA               NA <NA>             <NA>           
    ##  7 Chile               NA               NA <NA>             <NA>           
    ##  8 Germ…               NA               NA <NA>             <NA>           
    ##  9 Italy               NA               NA <NA>             <NA>           
    ## 10 Para…               NA               NA <NA>             <NA>           
    ## 11 Port…               NA               NA <NA>             <NA>           
    ## 12 Spain               NA               NA <NA>             <NA>           
    ## 13 Unit…               NA               NA <NA>             <NA>           
    ## 14 Unit…               NA               NA <NA>             <NA>           
    ## 15 Urug…               NA               NA <NA>             <NA>           
    ## # ... with 1 more variable: length_of_stay <dbl>
    ## 
    ##   // flows
    ## 
    ## # A tibble: 100 x 3
    ##    from             to         n
    ##    <chr>            <chr>  <dbl>
    ##  1 Espirito Santo   Italy  2828.
    ##  2 Minas Gerais     Italy 15714.
    ##  3 Rio de Janeiro   Italy  8164.
    ##  4 Sao Paulo        Italy 34039.
    ##  5 Southeast Brazil Italy 76282.
    ##  6 Espirito Santo   Spain  3270.
    ##  7 Minas Gerais     Spain 18176.
    ##  8 Rio de Janeiro   Spain  9443.
    ##  9 Sao Paulo        Spain 39371.
    ## 10 Southeast Brazil Spain 88231.
    ## # ... with 90 more rows
…
